…
### Draw a lot of samples and analyze them

``` r
boot_straps = tibble(strap_number = 1:100) |> 
  mutate(
    strap_sample = map(strap_number, \(i) boot_sample(sim_df_nonconst))
  )

boot_straps |> 
  pull(strap_sample) |> 
  nth(1) |> 
  arrange(x)
```

    ## # A tibble: 250 × 3
    ##         x   error       y
    ##     <dbl>   <dbl>   <dbl>
    ##  1 -1.89   1.62   -2.04  
    ##  2 -1.89   1.62   -2.04  
    ##  3 -1.21  -0.781  -2.43  
    ##  4 -1.21  -0.781  -2.43  
    ##  5 -1.00   0.832  -0.169 
    ##  6 -0.989 -1.97   -2.93  
    ##  7 -0.914 -0.908  -1.65  
    ##  8 -0.606 -0.106   0.0774
    ##  9 -0.536  0.0227  0.413 
    ## 10 -0.524 -0.536  -0.106 
    ## # ℹ 240 more rows
…
